<?xml version="1.0" encoding="UTF-8"?>
<svg width="72px" height="72px" viewBox="0 0 72 72" version="1.1" xmlns="http://www.w3.org/2000/svg" xmlns:xlink="http://www.w3.org/1999/xlink">
    <!-- Generator: Sketch 47.1 (45422) - http://www.bohemiancoding.com/sketch -->
    <title>Page 1 Copy 3</title>
    <desc>Created with Sketch.</desc>
    <defs></defs>
    <g id="Welcome" stroke="none" stroke-width="1" fill="none" fill-rule="evenodd">
        <g id="Desktop-HD" transform="translate(-364.000000, -927.000000)" fill="#FFFFFF">
            <g id="BETTER" transform="translate(250.000000, 737.000000)">
                <path d="M183.909677,226.929032 L149.070968,192.090323 C147.909677,190.696774 146.051613,190 144.193548,190 L120.967742,190 C117.019355,190 114,193.019355 114,196.967742 L114,220.193548 C114,222.051613 114.696774,223.909677 116.090323,225.070968 L150.929032,259.909673 C152.322581,261.303219 154.180645,262 155.806452,262 C157.432258,262 159.290323,261.303228 160.683871,259.909673 L183.909677,236.683871 C186.696774,234.129032 186.696774,229.483871 183.909677,226.929032 Z M130.258065,210.903226 C127.703226,210.903226 125.612903,208.812903 125.612903,206.258065 C125.612903,203.703226 127.703226,201.612903 130.258065,201.612903 C132.812903,201.612903 134.903226,203.703226 134.903226,206.258065 C134.903226,208.812903 132.812903,210.903226 130.258065,210.903226 Z" id="Page-1-Copy-3"></path>
            </g>
        </g>
    </g>
</svg>